\relax 
\@writefile{toc}{\contentsline {section}{\numberline {1}Opening keynote}{2}}
\@writefile{toc}{\contentsline {section}{\numberline {2}UIST Papers}{2}}
\@writefile{toc}{\contentsline {subsection}{\numberline {2.1}FaceTouch: Enabling Touch Interaction in display fixed uis for mobile VR}{2}}
\@writefile{toc}{\contentsline {subsection}{\numberline {2.2}Supporting mobile sense making through intentionally Uncertain Highlightning}{2}}
\@writefile{toc}{\contentsline {subsection}{\numberline {2.3}HoloFlex: A flexible Light-Field Smartphone with a microlens Array and a P-OLED touchscreen}{3}}
\@writefile{toc}{\contentsline {subsection}{\numberline {2.4}AuraSense: Enabling Expressive Around smartwatch Interaction w/ eletrci field sensing }{3}}
\@writefile{toc}{\contentsline {subsection}{\numberline {2.5}ChainFORM}{4}}
\@writefile{toc}{\contentsline {subsection}{\numberline {2.6}Zooids}{4}}
\@writefile{toc}{\contentsline {subsection}{\numberline {2.7}Rovables}{4}}
\@writefile{toc}{\contentsline {subsection}{\numberline {2.8}Aeromorph}{4}}
\@writefile{toc}{\contentsline {subsection}{\numberline {2.9}Designing a non contact wearable tactile display using airflows}{5}}
\@writefile{toc}{\contentsline {subsection}{\numberline {2.10}Real Pen}{5}}
\@writefile{toc}{\contentsline {subsection}{\numberline {2.11}Muscle Plotter}{6}}
\@writefile{toc}{\contentsline {subsection}{\numberline {2.12}Haptic Learning of semographic finger gesture}{6}}
\@writefile{toc}{\contentsline {subsection}{\numberline {2.13}GyroVR}{6}}
\@writefile{toc}{\contentsline {subsection}{\numberline {2.14}Next Point prediction Metrics for perceived spatial errors}{7}}
