\relax 
\providecommand\hyper@newdestlabel[2]{}
\providecommand\HyperFirstAtBeginDocument{\AtBeginDocument}
\HyperFirstAtBeginDocument{\ifx\hyper@anchor\@undefined
\global\let\oldcontentsline\contentsline
\gdef\contentsline#1#2#3#4{\oldcontentsline{#1}{#2}{#3}}
\global\let\oldnewlabel\newlabel
\gdef\newlabel#1#2{\newlabelxx{#1}#2}
\gdef\newlabelxx#1#2#3#4#5#6{\oldnewlabel{#1}{{#2}{#3}}}
\AtEndDocument{\ifx\hyper@anchor\@undefined
\let\contentsline\oldcontentsline
\let\newlabel\oldnewlabel
\fi}
\fi}
\global\let\hyper@last\relax 
\gdef\HyperFirstAtBeginDocument#1{#1}
\providecommand\HyField@AuxAddToFields[1]{}
\providecommand\HyField@AuxAddToCoFields[2]{}
\@writefile{toc}{\contentsline {section}{\numberline {0}Background}{1}{section.0}}
\@writefile{toc}{\contentsline {subsection}{\numberline {0.1}Peceptual Study}{1}{subsection.0.1}}
\@writefile{toc}{\contentsline {subsection}{\numberline {0.2}LDV measurement}{1}{subsection.0.2}}
\@writefile{toc}{\contentsline {subsection}{\numberline {0.3}Hypothesis}{1}{subsection.0.3}}
\@writefile{toc}{\contentsline {section}{\numberline {1}Litterature review}{2}{section.1}}
\@writefile{toc}{\contentsline {subsection}{\numberline {1.1}Wave propagation on skin}{2}{subsection.1.1}}
\@writefile{toc}{\contentsline {subsection}{\numberline {1.2}Group velocity in general}{2}{subsection.1.2}}
\@writefile{toc}{\contentsline {subsection}{\numberline {1.3}Moving stimulus}{2}{subsection.1.3}}
\@writefile{toc}{\contentsline {section}{\numberline {2}Preliminary studies}{2}{section.2}}
\@writefile{toc}{\contentsline {subsection}{\numberline {2.1}LDV Angle Correction}{2}{subsection.2.1}}
\@writefile{toc}{\contentsline {subsubsection}{\numberline {2.1.1}Perspective Correction}{3}{subsubsection.2.1.1}}
\@writefile{toc}{\contentsline {subsubsection}{\numberline {2.1.2}Amplitude correction}{3}{subsubsection.2.1.2}}
\@writefile{toc}{\contentsline {subsection}{\numberline {2.2}Displacement Characterisation}{3}{subsection.2.2}}
\@writefile{toc}{\contentsline {subsubsection}{\numberline {2.2.1}Displacement against Frequency}{3}{subsubsection.2.2.1}}
\@writefile{toc}{\contentsline {subsubsection}{\numberline {2.2.2}Displacement against Pressure}{4}{subsubsection.2.2.2}}
\@writefile{toc}{\contentsline {subsection}{\numberline {2.3}Group Velocity characterisation}{4}{subsection.2.3}}
\@writefile{toc}{\contentsline {section}{\numberline {3}Relation between pattern velocity and wave propagation velocity}{5}{section.3}}
\@writefile{toc}{\contentsline {subsection}{\numberline {3.1}Angular Velocity}{5}{subsection.3.1}}
\@writefile{toc}{\contentsline {subsubsection}{\numberline {3.1.1}User Study}{6}{subsubsection.3.1.1}}
