\relax 
\providecommand\hyper@newdestlabel[2]{}
\providecommand\HyperFirstAtBeginDocument{\AtBeginDocument}
\HyperFirstAtBeginDocument{\ifx\hyper@anchor\@undefined
\global\let\oldcontentsline\contentsline
\gdef\contentsline#1#2#3#4{\oldcontentsline{#1}{#2}{#3}}
\global\let\oldnewlabel\newlabel
\gdef\newlabel#1#2{\newlabelxx{#1}#2}
\gdef\newlabelxx#1#2#3#4#5#6{\oldnewlabel{#1}{{#2}{#3}}}
\AtEndDocument{\ifx\hyper@anchor\@undefined
\let\contentsline\oldcontentsline
\let\newlabel\oldnewlabel
\fi}
\fi}
\global\let\hyper@last\relax 
\gdef\HyperFirstAtBeginDocument#1{#1}
\providecommand\HyField@AuxAddToFields[1]{}
\providecommand\HyField@AuxAddToCoFields[2]{}
\@writefile{toc}{\contentsline {section}{\numberline {1}Introduction}{1}{section.1}}
\citation{Frier2018}
\@writefile{toc}{\contentsline {section}{\numberline {2}Definition}{2}{section.2}}
\@writefile{toc}{\contentsline {section}{\numberline {3}Current parameter space}{2}{section.3}}
\citation{Frier2019}
\@writefile{toc}{\contentsline {section}{\numberline {4}Definitions}{3}{section.4}}
\@writefile{toc}{\contentsline {subsection}{\numberline {4.1}point marker}{3}{subsection.4.1}}
\@writefile{toc}{\contentsline {subsection}{\numberline {4.2}Force Distribution}{4}{subsection.4.2}}
\@writefile{toc}{\contentsline {subsection}{\numberline {4.3}propagating waves}{4}{subsection.4.3}}
\@writefile{toc}{\contentsline {section}{\numberline {5}Optimising the parameter space}{4}{section.5}}
\@writefile{toc}{\contentsline {subsection}{\numberline {5.1}optimising local displacement}{5}{subsection.5.1}}
\newlabel{eq:max_disp}{{2}{5}{optimising local displacement}{equation.5.2}{}}
\@writefile{toc}{\contentsline {subsection}{\numberline {5.2}optimising spectral energy}{5}{subsection.5.2}}
\newlabel{eq:max_freq}{{4}{5}{optimising spectral energy}{equation.5.4}{}}
\@writefile{toc}{\contentsline {subsection}{\numberline {5.3}optimising for MR receptive field}{5}{subsection.5.3}}
\bibdata{library}
\@writefile{toc}{\contentsline {section}{\numberline {6}Parameter Space Candidate}{6}{section.6}}
\@writefile{toc}{\contentsline {subsection}{\numberline {6.1}acceleration non-nul}{6}{subsection.6.1}}
