\relax 
\providecommand\hyper@newdestlabel[2]{}
\providecommand\HyperFirstAtBeginDocument{\AtBeginDocument}
\HyperFirstAtBeginDocument{\ifx\hyper@anchor\@undefined
\global\let\oldcontentsline\contentsline
\gdef\contentsline#1#2#3#4{\oldcontentsline{#1}{#2}{#3}}
\global\let\oldnewlabel\newlabel
\gdef\newlabel#1#2{\newlabelxx{#1}#2}
\gdef\newlabelxx#1#2#3#4#5#6{\oldnewlabel{#1}{{#2}{#3}}}
\AtEndDocument{\ifx\hyper@anchor\@undefined
\let\contentsline\oldcontentsline
\let\newlabel\oldnewlabel
\fi}
\fi}
\global\let\hyper@last\relax 
\gdef\HyperFirstAtBeginDocument#1{#1}
\providecommand\HyField@AuxAddToFields[1]{}
\providecommand\HyField@AuxAddToCoFields[2]{}
\@writefile{toc}{\contentsline {chapter}{\numberline {}Acknowledgment}{i}{chapter.1}}
\@writefile{lof}{\addvspace {10\p@ }}
\@writefile{lot}{\addvspace {10\p@ }}
\@writefile{toc}{\contentsline {chapter}{\numberline {}Summary}{iii}{chapter.2}}
\@writefile{lof}{\addvspace {10\p@ }}
\@writefile{lot}{\addvspace {10\p@ }}
\citation{Lederman2009}
\citation{Gescheider2002}
\citation{Tsalamlal2014}
\citation{Sodhi2013}
\citation{Ochiai2015}
\citation{Spelmezan2016SparkleArcs}
\citation{Price2018}
\citation{Jones2013}
\citation{Konrad2007,Holliman2011,Geng2013}
\citation{Fichera2016}
\citation{Lee2009,Ma2015}
\citation{Pacchierotti2017}
\@writefile{toc}{\contentsline {chapter}{\numberline {1}Introduction}{1}{chapter.1}}
\@writefile{lof}{\addvspace {10\p@ }}
\@writefile{lot}{\addvspace {10\p@ }}
\newlabel{ch:intro}{{1}{1}{Introduction}{chapter.1}{}}
\citation{Hoshi2010}
\citation{Takahashi2018}
\citation{Obrist2013}
\citation{Long2014}
\citation{Kappus2018}
\citation{Schneider2017}
\citation{Plaisier2009}
\@writefile{lof}{\contentsline {figure}{\numberline {1.1}{\ignorespaces Mid-air tactile information processing can be divided into 4 steps, each relying on a different domain of research. Details about each of them can be found in the corresponding section.\relax }}{4}{figure.caption.4}}
\providecommand*\caption@xref[2]{\@setref\relax\@undefined{#1}}
\newlabel{fig:map}{{1.1}{4}{Mid-air tactile information processing can be divided into 4 steps, each relying on a different domain of research. Details about each of them can be found in the corresponding section.\relax }{figure.caption.4}{}}
\@writefile{toc}{\contentsline {chapter}{\numberline {2}The sense of touch}{7}{chapter.2}}
\@writefile{lof}{\addvspace {10\p@ }}
\@writefile{lot}{\addvspace {10\p@ }}
\newlabel{ch:touch}{{2}{7}{The sense of touch}{chapter.2}{}}
\@writefile{toc}{\contentsline {section}{\numberline {2.1}The sense of touch}{7}{section.2.1}}
\newlabel{sec:touch}{{2.1}{7}{The sense of touch}{section.2.1}{}}
\@writefile{toc}{\contentsline {subsection}{\numberline {2.1.1}Touch is part of the somatosensory system}{8}{subsection.2.1.1}}
\newlabel{subsec:somato}{{2.1.1}{8}{Touch is part of the somatosensory system}{subsection.2.1.1}{}}
\@writefile{toc}{\contentsline {subsection}{\numberline {2.1.2}Active and Passive touch}{8}{subsection.2.1.2}}
\newlabel{subsec:active}{{2.1.2}{8}{Active and Passive touch}{subsection.2.1.2}{}}
\citation{Lederman1987}
\citation{Lederman2009}
\citation{Lederman2009}
\citation{Lederman1981,Yildiz2015}
\@writefile{lof}{\contentsline {figure}{\numberline {2.1}{\ignorespaces To extract tactile information, one is using up to 6 Exploratory Procedures (\cite  {Lederman2009})\relax }}{9}{figure.caption.5}}
\newlabel{fig:EP}{{2.1}{9}{To extract tactile information, one is using up to 6 Exploratory Procedures (\cite {Lederman2009})\relax }{figure.caption.5}{}}
\citation{Gibson2005}
\citation{Okamoto2013}
\citation{McGlone2014a}
\@writefile{toc}{\contentsline {subsection}{\numberline {2.1.3}Discriminative and Affective Touch}{10}{subsection.2.1.3}}
\newlabel{subsec:discri}{{2.1.3}{10}{Discriminative and Affective Touch}{subsection.2.1.3}{}}
\@writefile{toc}{\contentsline {subsection}{\numberline {2.1.4}Sensation and Perception}{11}{subsection.2.1.4}}
\newlabel{subsec:sens_perc}{{2.1.4}{11}{Sensation and Perception}{subsection.2.1.4}{}}
\@writefile{toc}{\contentsline {section}{\numberline {2.2}Tactile Sensation}{11}{section.2.2}}
\newlabel{sec:sensation}{{2.2}{11}{Tactile Sensation}{section.2.2}{}}
\@writefile{toc}{\contentsline {subsection}{\numberline {2.2.1}Skin Mechanics}{11}{subsection.2.2.1}}
\newlabel{subsec:skin}{{2.2.1}{11}{Skin Mechanics}{subsection.2.2.1}{}}
\citation{Wagner2008}
\citation{Wiertlewski2012}
\citation{Dzidek2016}
\citation{Dzidek2016}
\citation{Wang2007}
\citation{Derler2012}
\citation{Wiertlewski2012}
\citation{dandekar2003}
\citation{Wiertlewski2012}
\citation{Wu2004}
\citation{zhang1999}
\@writefile{lot}{\contentsline {table}{\numberline {2.1}{\ignorespaces Skin viscoelastic properties at the fingertip\relax }}{12}{table.caption.7}}
\newlabel{tab:skin_properties}{{2.1}{12}{Skin viscoelastic properties at the fingertip\relax }{table.caption.7}{}}
\@writefile{toc}{\contentsline {subsubsection}{Skin properties}{12}{section*.6}}
\citation{Sripati2006}
\citation{Wiertlewski2012}
\citation{Manfredi2012,Shao2016a}
\citation{Wu2004}
\@writefile{toc}{\contentsline {subsubsection}{Continuum Mechanics and numerical analysis}{13}{section*.8}}
\newlabel{eq:hooke}{{2.1}{13}{Continuum Mechanics and numerical analysis}{equation.2.2.1}{}}
\@writefile{toc}{\contentsline {subsection}{\numberline {2.2.2}Mechanotransduction}{13}{subsection.2.2.2}}
\newlabel{subsec:mr}{{2.2.2}{13}{Mechanotransduction}{subsection.2.2.2}{}}
\citation{Hayward2014}
\citation{Johansson1983}
\citation{Gescheider2002}
\citation{Gescheider2002}
\citation{Gescheider2004}
\citation{Verrillo1963}
\citation{Gescheider2002}
\@writefile{lof}{\contentsline {figure}{\numberline {2.2}{\ignorespaces Mechanoreceptors are localised in the dermis, under the epidermis\relax }}{14}{figure.caption.10}}
\newlabel{fig:fingerMR}{{2.2}{14}{Mechanoreceptors are localised in the dermis, under the epidermis\relax }{figure.caption.10}{}}
\@writefile{toc}{\contentsline {subsubsection}{Low Threshold Mechanoreceptors}{14}{section*.9}}
\@writefile{lot}{\contentsline {table}{\numberline {2.2}{\ignorespaces Mechanoreceptors Properties at the fingertip\relax }}{14}{table.caption.11}}
\newlabel{tab:MR_properties}{{2.2}{14}{Mechanoreceptors Properties at the fingertip\relax }{table.caption.11}{}}
\citation{Johansson1978,Johansson1979a}
\citation{Freeman1982a}
\citation{Freeman1982}
\@writefile{lof}{\contentsline {figure}{\numberline {2.3}{\ignorespaces Channel threshold as a function of frequency (\cite  {Gescheider2002}) \relax }}{15}{figure.caption.12}}
\newlabel{fig:frequency_sensitivity_curve}{{2.3}{15}{Channel threshold as a function of frequency (\cite {Gescheider2002}) \relax }{figure.caption.12}{}}
\citation{Dong2013a}
\citation{Mihalas2009}
\citation{Saal2017}
\@writefile{toc}{\contentsline {subsubsection}{Mechanotransduction}{16}{section*.13}}
\citation{Macmillan2005}
\citation{Jones2013}
\@writefile{toc}{\contentsline {section}{\numberline {2.3}Tactile Perception}{17}{section.2.3}}
\newlabel{sec:perception}{{2.3}{17}{Tactile Perception}{section.2.3}{}}
\@writefile{toc}{\contentsline {subsection}{\numberline {2.3.1}Levels of Perception}{17}{subsection.2.3.1}}
\newlabel{subsec:levels}{{2.3.1}{17}{Levels of Perception}{subsection.2.3.1}{}}
\citation{ISO1997}
\@writefile{lof}{\contentsline {figure}{\numberline {2.4}{\ignorespaces Touch encompass several dimensions: (a) Roughness, normal force and vibration induced. (b) Hardness, contact area and force amplitude increasing with the displacement. (c) Friction, tangential force opposite to the finger movement.\relax }}{18}{figure.caption.14}}
\newlabel{fig:finger_dim}{{2.4}{18}{Touch encompass several dimensions: (a) Roughness, normal force and vibration induced. (b) Hardness, contact area and force amplitude increasing with the displacement. (c) Friction, tangential force opposite to the finger movement.\relax }{figure.caption.14}{}}
\@writefile{toc}{\contentsline {subsection}{\numberline {2.3.2}Dimension of Touch}{18}{subsection.2.3.2}}
\newlabel{subsec:dimTouch}{{2.3.2}{18}{Dimension of Touch}{subsection.2.3.2}{}}
\citation{Weber2013}
\citation{klatzky2002a,BensmaIa2003}
\citation{Lederman2009}
\citation{Manfredi2014b}
\citation{Skedung2013}
\citation{Kildal2010,Kim2013b,Doerrer2002}
\citation{Bicchi2000}
\citation{Kildal2010,Kildal2012}
\@writefile{toc}{\contentsline {subsubsection}{Roughness}{19}{section*.15}}
\@writefile{toc}{\contentsline {subsubsection}{Hardness}{19}{section*.16}}
\citation{zhang1999}
\citation{Jones2013}
\citation{Jones2013}
\@writefile{lot}{\contentsline {table}{\numberline {2.3}{\ignorespaces Threshold and Just-Noticeable-Difference for the 3 tactile dimension \cite  {Jones2013}\relax }}{20}{table.caption.18}}
\newlabel{tab:dim_jnd}{{2.3}{20}{Threshold and Just-Noticeable-Difference for the 3 tactile dimension \cite {Jones2013}\relax }{table.caption.18}{}}
\@writefile{toc}{\contentsline {subsubsection}{Friction}{20}{section*.17}}
\citation{Konrad2007,Holliman2011,Geng2013}
\citation{Pacchierotti2017}
\@writefile{toc}{\contentsline {chapter}{\numberline {3}Mid-air Tactile Displays and Mid-air Tacile Patterns}{22}{chapter.3}}
\@writefile{lof}{\addvspace {10\p@ }}
\@writefile{lot}{\addvspace {10\p@ }}
\newlabel{ch:display}{{3}{22}{Mid-air Tactile Displays and Mid-air Tacile Patterns}{chapter.3}{}}
\@writefile{toc}{\contentsline {section}{\numberline {3.1}Mid-air Haptic Display Techonologies}{22}{section.3.1}}
\newlabel{sec:techno}{{3.1}{22}{Mid-air Haptic Display Techonologies}{section.3.1}{}}
\citation{Tsalamlal2014}
\citation{Sodhi2013}
\citation{Ochiai2015}
\citation{Spelmezan2016SparkleArcs}
\citation{Tsalamlal2014}
\citation{Sodhi2013}
\citation{Ochiai2015}
\citation{Spelmezan2016SparkleArcs}
\citation{Tsalamlal2014}
\@writefile{lof}{\contentsline {figure}{\numberline {3.1}{\ignorespaces Mid-air Haptic Displays rely on different technologies: a) Air-jet (\cite  {Tsalamlal2014}), b) Air-vortexes(\cite  {Sodhi2013}), c) Femtolaser (\cite  {Ochiai2015}) and d) Electric Arcs (\cite  {Spelmezan2016SparkleArcs})\relax }}{23}{figure.caption.19}}
\newlabel{fig:displays}{{3.1}{23}{Mid-air Haptic Displays rely on different technologies: a) Air-jet (\cite {Tsalamlal2014}), b) Air-vortexes(\cite {Sodhi2013}), c) Femtolaser (\cite {Ochiai2015}) and d) Electric Arcs (\cite {Spelmezan2016SparkleArcs})\relax }{figure.caption.19}{}}
\@writefile{toc}{\contentsline {subsection}{\numberline {3.1.1}Air based}{23}{subsection.3.1.1}}
\newlabel{subsec:air}{{3.1.1}{23}{Air based}{subsection.3.1.1}{}}
\citation{Sodhi2013}
\citation{Sodhi2013}
\citation{Jun2015laser}
\citation{Ochiai2015}
\citation{Spelmezan2016SparkleArcs}
\citation{Hoshi2010}
\citation{Hoshi2010}
\citation{Ito2016}
\citation{Carter2013Ultrahaptics}
\@writefile{toc}{\contentsline {subsection}{\numberline {3.1.2}Laser based}{24}{subsection.3.1.2}}
\newlabel{subsec:laser}{{3.1.2}{24}{Laser based}{subsection.3.1.2}{}}
\@writefile{toc}{\contentsline {subsection}{\numberline {3.1.3}Electric based}{24}{subsection.3.1.3}}
\newlabel{subsec:elec}{{3.1.3}{24}{Electric based}{subsection.3.1.3}{}}
\citation{Price2018}
\citation{Iodice2018,Gozel2019}
\@writefile{lot}{\contentsline {table}{\numberline {3.1}{\ignorespaces Mid-air Haptic Display performance according to different technologies\relax }}{25}{table.caption.20}}
\newlabel{tab:Display}{{3.1}{25}{Mid-air Haptic Display performance according to different technologies\relax }{table.caption.20}{}}
\@writefile{toc}{\contentsline {subsection}{\numberline {3.1.4}Ultrasound Based}{25}{subsection.3.1.4}}
\newlabel{subsec:ultrasound}{{3.1.4}{25}{Ultrasound Based}{subsection.3.1.4}{}}
\citation{Price2018}
\citation{Price2018}
\citation{Long2014}
\@writefile{lof}{\contentsline {figure}{\numberline {3.2}{\ignorespaces Mid-air Haptic Displays can focus acoustic in a so called focal point: a) 2D view, b) 3D view (\cite  {Price2018})\relax }}{26}{figure.caption.21}}
\newlabel{fig:focal_point}{{3.2}{26}{Mid-air Haptic Displays can focus acoustic in a so called focal point: a) 2D view, b) 3D view (\cite {Price2018})\relax }{figure.caption.21}{}}
\@writefile{toc}{\contentsline {section}{\numberline {3.2}Ultrasonic Phased Array}{26}{section.3.2}}
\newlabel{sec:UPA}{{3.2}{26}{Ultrasonic Phased Array}{section.3.2}{}}
\@writefile{toc}{\contentsline {subsection}{\numberline {3.2.1}Focal Point}{26}{subsection.3.2.1}}
\newlabel{subsec:fp}{{3.2.1}{26}{Focal Point}{subsection.3.2.1}{}}
\citation{Inoue2016}
\citation{Inoue2016}
\citation{Ito2016}
\citation{Price2018}
\newlabel{eq:total_pressure}{{3.1}{27}{Focal Point}{equation.3.2.1}{}}
\newlabel{eq:size_fp}{{3.2}{27}{Focal Point}{equation.3.2.2}{}}
\@writefile{lof}{\contentsline {figure}{\numberline {3.3}{\ignorespaces Amplitude Modulation: To create a pattern (here a circle), one needs multipoint whose amplitudes vary across time\relax }}{28}{figure.caption.22}}
\newlabel{fig:am}{{3.3}{28}{Amplitude Modulation: To create a pattern (here a circle), one needs multipoint whose amplitudes vary across time\relax }{figure.caption.22}{}}
\@writefile{toc}{\contentsline {subsection}{\numberline {3.2.2}Amplitude Modulation}{28}{subsection.3.2.2}}
\newlabel{subsec:AM}{{3.2.2}{28}{Amplitude Modulation}{subsection.3.2.2}{}}
\citation{Gescheider2002}
\citation{Obrist2013}
\citation{Monnai2014}
\citation{Obrist2013}
\citation{Monnai2014}
\citation{Maclean2003}
\citation{Long2014}
\citation{Long2014}
\citation{Biggs2002}
\citation{Takahashi2018}
\citation{Takahashi2018}
\@writefile{lof}{\contentsline {figure}{\numberline {3.4}{\ignorespaces Lateral Modulation: To create a pattern (here a circle), one needs multipoint whose positions oscillate across time, while the amplitude stays at its maximum\relax }}{30}{figure.caption.23}}
\newlabel{fig:lm}{{3.4}{30}{Lateral Modulation: To create a pattern (here a circle), one needs multipoint whose positions oscillate across time, while the amplitude stays at its maximum\relax }{figure.caption.23}{}}
\@writefile{toc}{\contentsline {subsection}{\numberline {3.2.3}Lateral Modulation}{30}{subsection.3.2.3}}
\newlabel{subsec:LM}{{3.2.3}{30}{Lateral Modulation}{subsection.3.2.3}{}}
\citation{Kappus2018}
\citation{Loomis1981}
\@writefile{lof}{\contentsline {figure}{\numberline {3.5}{\ignorespaces Spatiotemporal Modulation: To create a pattern (here a circle), one needs a single points moving repeatedly over the circle path, while the amplitude stays at its maximum\relax }}{31}{figure.caption.24}}
\newlabel{fig:stm}{{3.5}{31}{Spatiotemporal Modulation: To create a pattern (here a circle), one needs a single points moving repeatedly over the circle path, while the amplitude stays at its maximum\relax }{figure.caption.24}{}}
\@writefile{toc}{\contentsline {subsection}{\numberline {3.2.4}Spatiotemporal Modulation}{31}{subsection.3.2.4}}
\newlabel{subsec:STM}{{3.2.4}{31}{Spatiotemporal Modulation}{subsection.3.2.4}{}}
\citation{Schneider2015}
\citation{Sripati2006,Wang2006}
\@writefile{toc}{\contentsline {section}{\numberline {3.3}Mid-air Tactile Pattern}{32}{section.3.3}}
\newlabel{sec:pattern}{{3.3}{32}{Mid-air Tactile Pattern}{section.3.3}{}}
\@writefile{toc}{\contentsline {subsection}{\numberline {3.3.1}Definition}{32}{subsection.3.3.1}}
\newlabel{subsec:pattern}{{3.3.1}{32}{Definition}{subsection.3.3.1}{}}
\citation{Frier2016}
\citation{Romano2010}
\citation{Culbertson2014}
\citation{Obrist2013}
\citation{Monnai2014}
\citation{Freeman2017}
\@writefile{toc}{\contentsline {subsection}{\numberline {3.3.2}Mid-air tactile sensation}{34}{subsection.3.3.2}}
\newlabel{subsec:sensation}{{3.3.2}{34}{Mid-air tactile sensation}{subsection.3.3.2}{}}
\citation{Obrist2015}
\citation{Wilson2014ApparentMotion}
\citation{Wilson2014ApparentMotion}
\citation{Carter2013Ultrahaptics}
\citation{Long2014b}
\citation{Lederman1987,Plaisier2009}
\citation{korres2017}
\@writefile{toc}{\contentsline {subsection}{\numberline {3.3.3}Mid-air tactile shape}{35}{subsection.3.3.3}}
\newlabel{subsec:shape}{{3.3.3}{35}{Mid-air tactile shape}{subsection.3.3.3}{}}
\citation{Kappus2018}
\citation{Skedung2013}
\citation{Loomis1981}
\citation{Ablart2017}
\citation{azh2016}
\citation{Plaisier2009}
\citation{settnes2012}
\@writefile{toc}{\contentsline {section}{\numberline {3.4}Evaluation}{37}{section.3.4}}
\newlabel{sec:eval}{{3.4}{37}{Evaluation}{section.3.4}{}}
\@writefile{toc}{\contentsline {subsection}{\numberline {3.4.1}Acoustic Radiation Pressure}{37}{subsection.3.4.1}}
\newlabel{subsec:ARP}{{3.4.1}{37}{Acoustic Radiation Pressure}{subsection.3.4.1}{}}
\citation{Hoshi2010}
\newlabel{eq:ARP}{{3.3}{38}{Acoustic Radiation Pressure}{equation.3.4.3}{}}
\citation{Liang2010}
\citation{Liang2010}
\citation{Shao2016a}
\citation{Shao2016a}
\citation{Manfredi2012}
\@writefile{toc}{\contentsline {subsection}{\numberline {3.4.2}Skin deformation}{39}{subsection.3.4.2}}
\newlabel{subsec:skin_def}{{3.4.2}{39}{Skin deformation}{subsection.3.4.2}{}}
\newlabel{eq:hooke}{{3.4}{39}{Skin deformation}{equation.3.4.4}{}}
\citation{Johansson2009}
\citation{Hayward2014}
\citation{Mcglone2012}
\citation{Vallbo2004}
\@writefile{toc}{\contentsline {subsection}{\numberline {3.4.3}Microneurography}{40}{subsection.3.4.3}}
\@writefile{toc}{\contentsline {subsection}{\numberline {3.4.4}Perceived Strength}{40}{subsection.3.4.4}}
\newlabel{subsec:strength}{{3.4.4}{40}{Perceived Strength}{subsection.3.4.4}{}}
\citation{Jones2013}
\citation{Strohmeier2017}
\citation{Han1999}
\citation{Johansson2009}
\citation{Loomis1981}
\@writefile{toc}{\contentsline {chapter}{\numberline {4}Rendering Speed}{43}{chapter.4}}
\@writefile{lof}{\addvspace {10\p@ }}
\@writefile{lot}{\addvspace {10\p@ }}
\newlabel{ch:speed}{{4}{43}{Rendering Speed}{chapter.4}{}}
\@writefile{toc}{\contentsline {section}{\numberline {4.1}Theory}{43}{section.4.1}}
\newlabel{sec:speed_th}{{4.1}{43}{Theory}{section.4.1}{}}
\citation{Krylov1995,Krylov2000}
\citation{Delhaye2012,Manfredi2012,Shao2016a}
\@writefile{lof}{\contentsline {figure}{\numberline {4.1}{\ignorespaces The Experimental Set-up was composed of 3 main elements 1)An ultrasonic phased array, 2) A silicone slab and 3) A Laser Doppler Vibrometer\relax }}{45}{figure.caption.25}}
\newlabel{fig:MeasurementSetUp}{{4.1}{45}{The Experimental Set-up was composed of 3 main elements 1)An ultrasonic phased array, 2) A silicone slab and 3) A Laser Doppler Vibrometer\relax }{figure.caption.25}{}}
\@writefile{toc}{\contentsline {section}{\numberline {4.2}Vibrometry Study}{45}{section.4.2}}
\newlabel{sec:vib_study}{{4.2}{45}{Vibrometry Study}{section.4.2}{}}
\@writefile{toc}{\contentsline {subsection}{\numberline {4.2.1}Measurement Set-Up}{45}{subsection.4.2.1}}
\newlabel{subsec:vib_setup}{{4.2.1}{45}{Measurement Set-Up}{subsection.4.2.1}{}}
\citation{Kearney2015,Royston2011}
\citation{Gerhardt2008}
\citation{Manfredi2012}
\citation{Manfredi2012}
\@writefile{toc}{\contentsline {subsection}{\numberline {4.2.2}Preliminary Measurement}{47}{subsection.4.2.2}}
\newlabel{subsec:vib_meas}{{4.2.2}{47}{Preliminary Measurement}{subsection.4.2.2}{}}
\citation{Manfredi2012}
\@writefile{lof}{\contentsline {figure}{\numberline {4.2}{\ignorespaces Measured surface wave propagation speed in the silicone slab. Speed averaged around \SI {10}{\meter \per \second }\relax }}{48}{figure.caption.26}}
\newlabel{fig:Disp_vel}{{4.2}{48}{Measured surface wave propagation speed in the silicone slab. Speed averaged around \SI {10}{\meter \per \second }\relax }{figure.caption.26}{}}
\@writefile{toc}{\contentsline {subsubsection}{Surface wave propagation speed}{48}{section*.27}}
\@writefile{toc}{\contentsline {subsubsection}{Frequency response}{48}{section*.29}}
\citation{Komandur2009}
\@writefile{lof}{\contentsline {figure}{\numberline {4.3}{\ignorespaces Measured frequency response in the silicone slab. One can see the silicone resonance behaviour around \SI {400}{\hertz }.\relax }}{49}{figure.caption.28}}
\newlabel{fig:Disp_res}{{4.3}{49}{Measured frequency response in the silicone slab. One can see the silicone resonance behaviour around \SI {400}{\hertz }.\relax }{figure.caption.28}{}}
\@writefile{toc}{\contentsline {subsection}{\numberline {4.2.3}Spatiotemporally Modulated Patterns}{49}{subsection.4.2.3}}
\newlabel{subsec:vib_patterns}{{4.2.3}{49}{Spatiotemporally Modulated Patterns}{subsection.4.2.3}{}}
\@writefile{lof}{\contentsline {figure}{\numberline {4.4}{\ignorespaces Example of the measurement obtained for the root-mean-squared displacement of a circular pattern.\relax }}{50}{figure.caption.30}}
\newlabel{fig:RMSPlot}{{4.4}{50}{Example of the measurement obtained for the root-mean-squared displacement of a circular pattern.\relax }{figure.caption.30}{}}
\@writefile{lof}{\contentsline {figure}{\numberline {4.5}{\ignorespaces Average root-mean-square of displacement as function of speed for circular patterns with different perimeters.\relax }}{50}{figure.caption.31}}
\newlabel{fig:vib_result}{{4.5}{50}{Average root-mean-square of displacement as function of speed for circular patterns with different perimeters.\relax }{figure.caption.31}{}}
\@writefile{toc}{\contentsline {subsection}{\numberline {4.2.4}Results}{50}{subsection.4.2.4}}
\newlabel{subsec:vib_res}{{4.2.4}{50}{Results}{figure.caption.31}{}}
\@writefile{toc}{\contentsline {section}{\numberline {4.3}User Study}{51}{section.4.3}}
\newlabel{sec:speed_us}{{4.3}{51}{User Study}{section.4.3}{}}
\@writefile{toc}{\contentsline {subsection}{\numberline {4.3.1}Study set-up and procedure}{51}{subsection.4.3.1}}
\newlabel{subsec:us_setup}{{4.3.1}{51}{Study set-up and procedure}{subsection.4.3.1}{}}
\citation{Jones2013}
\@writefile{lot}{\contentsline {table}{\numberline {4.1}{\ignorespaces \emph  {Correlation matrix of the intensities ratings for the 5,10 and 15cm perimeter.}\relax }}{52}{table.caption.32}}
\newlabel{tab:resultsCorr}{{4.1}{52}{\emph {Correlation matrix of the intensities ratings for the 5,10 and 15cm perimeter.}\relax }{table.caption.32}{}}
\@writefile{toc}{\contentsline {subsection}{\numberline {4.3.2}Results}{52}{subsection.4.3.2}}
\newlabel{subsec:us_res}{{4.3.2}{52}{Results}{subsection.4.3.2}{}}
\citation{Manfredi2012}
\@writefile{lof}{\contentsline {figure}{\numberline {4.6}{\ignorespaces A plot of the intensity ratings of the haptic feedback by perimeter size.\relax }}{53}{figure.caption.33}}
\newlabel{fig:RatingPlot}{{4.6}{53}{A plot of the intensity ratings of the haptic feedback by perimeter size.\relax }{figure.caption.33}{}}
\@writefile{toc}{\contentsline {section}{\numberline {4.4}Discussion}{53}{section.4.4}}
\newlabel{sec:speed_disc}{{4.4}{53}{Discussion}{section.4.4}{}}
\citation{Gescheider2002}
\citation{Long2014}
\citation{Campion2005,Choi2007}
\@writefile{toc}{\contentsline {chapter}{\numberline {5}Rendering Update Rate}{56}{chapter.5}}
\@writefile{lof}{\addvspace {10\p@ }}
\@writefile{lot}{\addvspace {10\p@ }}
\newlabel{ch:sampling}{{5}{56}{Rendering Update Rate}{chapter.5}{}}
\@writefile{toc}{\contentsline {section}{\numberline {5.1}Sampling Strategy}{56}{section.5.1}}
\newlabel{sec:sampling}{{5.1}{56}{Sampling Strategy}{section.5.1}{}}
\@writefile{toc}{\contentsline {subsection}{\numberline {5.1.1}Pattern Sampling Rate}{56}{subsection.5.1.1}}
\newlabel{subsec:sampling_pattern}{{5.1.1}{56}{Pattern Sampling Rate}{subsection.5.1.1}{}}
\citation{Obrist2013}
\@writefile{lof}{\contentsline {figure}{\numberline {5.1}{\ignorespaces (a) A mid-air tactile pattern such as a circle is sampled into a set of successive positions, here 10. (b) Each sample point is presented during a given interval of time proportional to the total number of sample points. (c) Increasing the number of sample points will increase the rendering delity, but will also decrease the stimulation duration of each sample point.\relax }}{57}{figure.caption.34}}
\newlabel{fig:teaser}{{5.1}{57}{(a) A mid-air tactile pattern such as a circle is sampled into a set of successive positions, here 10. (b) Each sample point is presented during a given interval of time proportional to the total number of sample points. (c) Increasing the number of sample points will increase the rendering delity, but will also decrease the stimulation duration of each sample point.\relax }{figure.caption.34}{}}
\newlabel{equation:sampling_rate}{{5.1}{57}{Pattern Sampling Rate}{equation.5.1.1}{}}
\citation{Kappus2018}
\citation{Loomis1981}
\@writefile{toc}{\contentsline {subsection}{\numberline {5.1.2}Current Sampling Strategies}{58}{subsection.5.1.2}}
\newlabel{subsec:sampling_strat}{{5.1.2}{58}{Current Sampling Strategies}{subsection.5.1.2}{}}
\@writefile{toc}{\contentsline {subsection}{\numberline {5.1.3}Pros and Cons for High Sampling Rate Strategy}{58}{subsection.5.1.3}}
\newlabel{subsec:sampling_high}{{5.1.3}{58}{Pros and Cons for High Sampling Rate Strategy}{subsection.5.1.3}{}}
\citation{Jones2013}
\@writefile{lof}{\contentsline {figure}{\numberline {5.2}{\ignorespaces The set-up for the user studies. Participants were perceiving the mid-air tactile pattern on their left palm while rating each pattern on a designated laptop.\relax }}{59}{figure.caption.35}}
\newlabel{fig:setup}{{5.2}{59}{The set-up for the user studies. Participants were perceiving the mid-air tactile pattern on their left palm while rating each pattern on a designated laptop.\relax }{figure.caption.35}{}}
\@writefile{toc}{\contentsline {section}{\numberline {5.2}User Study 1}{59}{section.5.2}}
\newlabel{sec:sampling_us1}{{5.2}{59}{User Study 1}{section.5.2}{}}
\citation{Komandur2009}
\citation{Johansson2009}
\@writefile{lof}{\contentsline {figure}{\numberline {5.3}{\ignorespaces The standardise perceived strength as a function of the number of sampling points, for a \SI {150}{\milli \metre } circumference circle rendered at different frequencies. Light and bold curves represent participants responses and responses average, respectively.\relax }}{60}{figure.caption.36}}
\newlabel{fig:plots1}{{5.3}{60}{The standardise perceived strength as a function of the number of sampling points, for a \SI {150}{\milli \metre } circumference circle rendered at different frequencies. Light and bold curves represent participants responses and responses average, respectively.\relax }{figure.caption.36}{}}
\@writefile{toc}{\contentsline {subsection}{\numberline {5.2.1}Method}{60}{subsection.5.2.1}}
\newlabel{subsec:us1_meth}{{5.2.1}{60}{Method}{subsection.5.2.1}{}}
\citation{Jones2013,Strohmeier2017}
\@writefile{toc}{\contentsline {subsection}{\numberline {5.2.2}Results}{61}{subsection.5.2.2}}
\newlabel{subsec:us1_res}{{5.2.2}{61}{Results}{subsection.5.2.2}{}}
\@writefile{lof}{\contentsline {figure}{\numberline {5.4}{\ignorespaces Data post-processing steps. (a) Raw data, (b) Standardised data, (c) Significant data, and (d) Fitted model.\relax }}{62}{figure.caption.37}}
\newlabel{fig:fit}{{5.4}{62}{Data post-processing steps. (a) Raw data, (b) Standardised data, (c) Significant data, and (d) Fitted model.\relax }{figure.caption.37}{}}
\@writefile{lot}{\contentsline {table}{\numberline {5.1}{\ignorespaces Quadratic mixed model results for frequency \SI {2}{\hertz }, \SI {5}{\hertz } and \SI {10}{\hertz }. Results include $R^2$, optimal sampling rate and sampling rate limit.\relax }}{62}{table.caption.38}}
\newlabel{tab:Quad1}{{5.1}{62}{Quadratic mixed model results for frequency \SI {2}{\hertz }, \SI {5}{\hertz } and \SI {10}{\hertz }. Results include $R^2$, optimal sampling rate and sampling rate limit.\relax }{table.caption.38}{}}
\newlabel{equation:model}{{5.2}{63}{Results}{equation.5.2.2}{}}
\@writefile{lof}{\contentsline {figure}{\numberline {5.5}{\ignorespaces The standardised perceived strength as a function of the number of sampling points, for different frequencies and circle circumferences. Light curves represent participant responses and bold curves represent responses average.\relax }}{64}{figure.caption.39}}
\newlabel{fig:plots2}{{5.5}{64}{The standardised perceived strength as a function of the number of sampling points, for different frequencies and circle circumferences. Light curves represent participant responses and bold curves represent responses average.\relax }{figure.caption.39}{}}
\@writefile{toc}{\contentsline {section}{\numberline {5.3}User Study 2}{64}{section.5.3}}
\newlabel{sec:sampling_us2}{{5.3}{64}{User Study 2}{section.5.3}{}}
\@writefile{toc}{\contentsline {subsection}{\numberline {5.3.1}Method}{64}{subsection.5.3.1}}
\newlabel{subsec:us2_meth}{{5.3.1}{64}{Method}{subsection.5.3.1}{}}
\@writefile{lot}{\contentsline {table}{\numberline {5.2}{\ignorespaces Quadratic mixed model results for frequency \SI {2}{\hertz } and \SI {10}{\hertz } across the different pattern sizes. Results include $R^2$, optimal sampling rate and sampling rate limit\relax }}{65}{table.caption.40}}
\newlabel{tab:Quad2}{{5.2}{65}{Quadratic mixed model results for frequency \SI {2}{\hertz } and \SI {10}{\hertz } across the different pattern sizes. Results include $R^2$, optimal sampling rate and sampling rate limit\relax }{table.caption.40}{}}
\@writefile{toc}{\contentsline {subsection}{\numberline {5.3.2}Results}{65}{subsection.5.3.2}}
\newlabel{subsec:us2_res}{{5.3.2}{65}{Results}{subsection.5.3.2}{}}
\@writefile{toc}{\contentsline {section}{\numberline {5.4}Discussion}{66}{section.5.4}}
\newlabel{sec:sampling_disc}{{5.4}{66}{Discussion}{section.5.4}{}}
\@writefile{toc}{\contentsline {subsection}{\numberline {5.4.1}User studies Results}{66}{subsection.5.4.1}}
\newlabel{subsec:disc_us}{{5.4.1}{66}{User studies Results}{subsection.5.4.1}{}}
\@writefile{toc}{\contentsline {subsection}{\numberline {5.4.2}Haptic Implications}{67}{subsection.5.4.2}}
\newlabel{subsec:disc_imp}{{5.4.2}{67}{Haptic Implications}{subsection.5.4.2}{}}
\citation{Ion2015}
\citation{Gescheider2004}
\citation{Johansson2009}
\citation{Vallbo1984}
\citation{Saal2017}
\@writefile{toc}{\contentsline {subsection}{\numberline {5.4.3}Psychophysical Explanation}{69}{subsection.5.4.3}}
\newlabel{subsec:disc_psy}{{5.4.3}{69}{Psychophysical Explanation}{subsection.5.4.3}{}}
\@writefile{toc}{\contentsline {chapter}{\numberline {6}Spatial Distribution}{71}{chapter.6}}
\@writefile{lof}{\addvspace {10\p@ }}
\@writefile{lot}{\addvspace {10\p@ }}
\newlabel{ch:spatial}{{6}{71}{Spatial Distribution}{chapter.6}{}}
\@writefile{toc}{\contentsline {section}{\numberline {6.1}Theory}{72}{section.6.1}}
\newlabel{sec:spatial_th}{{6.1}{72}{Theory}{section.6.1}{}}
\@writefile{toc}{\contentsline {subsection}{\numberline {6.1.1}Assumptions and limits}{72}{subsection.6.1.1}}
\newlabel{subsec:assumption}{{6.1.1}{72}{Assumptions and limits}{subsection.6.1.1}{}}
\citation{Hoshi2010,Price2018}
\@writefile{lof}{\contentsline {figure}{\numberline {6.1}{\ignorespaces As the focal point (small circle) moves towards the mechanoreceptor receptive field (big circler), the overlap of the two (blue area) grows (a-d) and then decreases (d-g). This may have significance as how strongly the focal point stimulates the mechanoreceptor\relax }}{73}{figure.caption.41}}
\newlabel{fig:circle_overlap}{{6.1}{73}{As the focal point (small circle) moves towards the mechanoreceptor receptive field (big circler), the overlap of the two (blue area) grows (a-d) and then decreases (d-g). This may have significance as how strongly the focal point stimulates the mechanoreceptor\relax }{figure.caption.41}{}}
\newlabel{eq:pulse_train}{{6.1}{74}{Assumptions and limits}{equation.6.1.1}{}}
\@writefile{toc}{\contentsline {subsection}{\numberline {6.1.2}Proposed Approach}{74}{subsection.6.1.2}}
\newlabel{subsec:approach}{{6.1.2}{74}{Proposed Approach}{subsection.6.1.2}{}}
\citation{Vardar2017a}
\@writefile{toc}{\contentsline {section}{\numberline {6.2}Preliminary Work}{75}{section.6.2}}
\newlabel{sec:preliminary}{{6.2}{75}{Preliminary Work}{section.6.2}{}}
\@writefile{lof}{\contentsline {figure}{\numberline {6.2}{\ignorespaces Proposed Research Framework. Characterising the pressure applied at the mechanoreceptor receptive field could help to predict whether a given mid-air haptic stimulus will be perceived.\relax }}{76}{figure.caption.42}}
\newlabel{fig:framework}{{6.2}{76}{Proposed Research Framework. Characterising the pressure applied at the mechanoreceptor receptive field could help to predict whether a given mid-air haptic stimulus will be perceived.\relax }{figure.caption.42}{}}
\@writefile{toc}{\contentsline {subsection}{\numberline {6.2.1}Pulse duration}{76}{subsection.6.2.1}}
\citation{Hoshi2010}
\citation{Price2018}
\@writefile{lof}{\contentsline {figure}{\numberline {6.3}{\ignorespaces Overlap as a function of sample number. Overlap were computer for a mid-air haptic circle rendered at \SI {200}{\hertz } (top) and \SI {64}{\hertz } (bottom) with sampling rate ranging from low (left) to high (right)\relax }}{77}{figure.caption.43}}
\newlabel{fig:overlap_sim}{{6.3}{77}{Overlap as a function of sample number. Overlap were computer for a mid-air haptic circle rendered at \SI {200}{\hertz } (top) and \SI {64}{\hertz } (bottom) with sampling rate ranging from low (left) to high (right)\relax }{figure.caption.43}{}}
\@writefile{toc}{\contentsline {subsection}{\numberline {6.2.2}Pulse envelop}{77}{subsection.6.2.2}}
\citation{Kappus2018}
\@writefile{lof}{\contentsline {figure}{\numberline {6.4}{\ignorespaces Microphone recording of the acoustic pressure produced by a mid-air haptic circle rendered at \SI {200}{\hertz } (top) and \SI {64}{\hertz } (bottom) with sampling rate ranging from low (left) to high (right) \relax }}{78}{figure.caption.44}}
\newlabel{fig:recording_time}{{6.4}{78}{Microphone recording of the acoustic pressure produced by a mid-air haptic circle rendered at \SI {200}{\hertz } (top) and \SI {64}{\hertz } (bottom) with sampling rate ranging from low (left) to high (right) \relax }{figure.caption.44}{}}
\@writefile{toc}{\contentsline {chapter}{\numberline {7}Conclusion}{80}{chapter.7}}
\@writefile{lof}{\addvspace {10\p@ }}
\@writefile{lot}{\addvspace {10\p@ }}
\newlabel{ch:conclusion}{{7}{80}{Conclusion}{chapter.7}{}}
\@writefile{toc}{\contentsline {section}{\numberline {7.1}Contributions}{80}{section.7.1}}
\newlabel{sec:contribution}{{7.1}{80}{Contributions}{section.7.1}{}}
\@writefile{toc}{\contentsline {subsection}{\numberline {7.1.1}Mid-air Haptic Applications}{81}{subsection.7.1.1}}
\newlabel{subsec:app}{{7.1.1}{81}{Mid-air Haptic Applications}{subsection.7.1.1}{}}
\citation{Sripati2006,Wang2006}
\citation{Schneider2015}
\citation{Manfredi2012}
\citation{Delhaye2012}
\citation{Shao2016a}
\@writefile{toc}{\contentsline {subsection}{\numberline {7.1.2}Haptic Perception}{83}{subsection.7.1.2}}
\newlabel{subsec:community}{{7.1.2}{83}{Haptic Perception}{subsection.7.1.2}{}}
\citation{Royston2011,Kearney2015}
\citation{Delhaye2012,Manfredi2012,Shao2016a,Fradet2017}
\@writefile{toc}{\contentsline {section}{\numberline {7.2}Limitations}{85}{section.7.2}}
\newlabel{sec:limitation}{{7.2}{85}{Limitations}{section.7.2}{}}
\@writefile{toc}{\contentsline {subsection}{\numberline {7.2.1}Methodology}{85}{subsection.7.2.1}}
\newlabel{subsec:methodo}{{7.2.1}{85}{Methodology}{subsection.7.2.1}{}}
\citation{Jones2013}
\citation{Han1999,Jones2013,Strohmeier2017}
\citation{Verrillo1971}
\@writefile{toc}{\contentsline {subsection}{\numberline {7.2.2}Results}{86}{subsection.7.2.2}}
\newlabel{subsec:results}{{7.2.2}{86}{Results}{subsection.7.2.2}{}}
\citation{Long2014}
\citation{Obrist2015}
\citation{korres2017}
\citation{Plaisier2009}
\citation{Long2014}
\citation{korres2017}
\citation{Long2014}
\citation{Long2014}
\citation{korres2017}
\@writefile{toc}{\contentsline {section}{\numberline {7.3}Future work}{88}{section.7.3}}
\newlabel{sec:FW}{{7.3}{88}{Future work}{section.7.3}{}}
\@writefile{toc}{\contentsline {subsection}{\numberline {7.3.1}Short Term Work}{88}{subsection.7.3.1}}
\newlabel{subsec:short}{{7.3.1}{88}{Short Term Work}{subsection.7.3.1}{}}
\citation{Rutten2019}
\@writefile{toc}{\contentsline {subsection}{\numberline {7.3.2}Long Term Work}{90}{subsection.7.3.2}}
\newlabel{subsec:long}{{7.3.2}{90}{Long Term Work}{subsection.7.3.2}{}}
\@writefile{toc}{\contentsline {subsection}{\numberline {7.3.3}Complimentary Work}{91}{subsection.7.3.3}}
\newlabel{subsec:tangent}{{7.3.3}{91}{Complimentary Work}{subsection.7.3.3}{}}
\citation{DiLuca2011}
\citation{Jousmaki1998}
\bibstyle{abbrvnat}
\bibdata{Bib/library}
\bibcite{Ablart2017}{{1}{2017}{{Ablart et~al.}}{{Ablart, Velasco, and Obrist}}}
\bibcite{azh2016}{{2}{2016}{{Azh et~al.}}{{Azh, Zhao, and Subramanian}}}
\bibcite{BensmaIa2003}{{3}{2003}{{Bensma{\"{I}}a and Hollins}}{{}}}
\bibcite{Bicchi2000}{{4}{2000}{{Bicchi et~al.}}{{Bicchi, Scilingo, and {De Rossi}}}}
\bibcite{Biggs2002}{{5}{2002}{{Biggs and Srinivasan}}{{}}}
\bibcite{Campion2005}{{6}{2005}{{Campion and Hayward}}{{}}}
\bibcite{Carter2013Ultrahaptics}{{7}{2013}{{Carter et~al.}}{{Carter, Seah, Long, Drinkwater, and Subramanian}}}
\bibcite{Choi2007}{{8}{2007}{{Choi and Tan}}{{}}}
\bibcite{Culbertson2014}{{9}{2014}{{Culbertson et~al.}}{{Culbertson, {Jose Lopez Delgado}, Kuchenbecker, Delgado, and Jose}}}
\bibcite{dandekar2003}{{10}{2003}{{Dandekar et~al.}}{{Dandekar, Raju, and Srinivasan}}}
\bibcite{Delhaye2012}{{11}{2012}{{Delhaye et~al.}}{{Delhaye, Hayward, Lef{\`{e}}vre, and Thonnard}}}
\bibcite{Derler2012}{{12}{2012}{{Derler and Gerhardt}}{{}}}
\bibcite{DiLuca2011}{{13}{2011}{{{Di Luca} et~al.}}{{{Di Luca}, Kn{\"{o}}rlein, Ernst, and Harders}}}
\bibcite{Doerrer2002}{{14}{2002}{{Doerrer and Werthschuetzky}}{{}}}
\bibcite{Dong2013a}{{15}{2013}{{Dong et~al.}}{{Dong, Mihalas, Kim, Yoshioka, Bensma{\"{I}}a, and Niebur}}}
\bibcite{Dzidek2016}{{16}{2016}{{Dzidek et~al.}}{{Dzidek, Bochereau, Johnson, Hayward, and Adams}}}
\bibcite{Fichera2016}{{17}{2016}{{Fichera et~al.}}{{Fichera, Pacchierotti, Olivieri, Prattichizzo, and Mattos}}}
\bibcite{Fradet2017}{{18}{2017}{{Fradet et~al.}}{{Fradet, Manfredi, Bensma{\"{I}}a, and Hayward}}}
\bibcite{Freeman1982a}{{19}{1982}{{Freeman and Johnson}}{{}}}
\bibcite{Freeman1982}{{20}{1982}{{Freeman and Johnsont}}{{}}}
\bibcite{Gozel2019}{{21}{}{{Freeman et~al.}}{{Freeman, Andersson, Frier, and Long}}}
\bibcite{Freeman2017}{{22}{2017}{{Freeman et~al.}}{{Freeman, Anderson, Williamson, Wilson, and Brewster}}}
\bibcite{Frier2016}{{23}{2016}{{Frier et~al.}}{{Frier, Seo, and Subramanian}}}
\bibcite{Geng2013}{{24}{2013}{{Geng}}{{}}}
\bibcite{Gerhardt2008}{{25}{2008}{{Gerhardt et~al.}}{{Gerhardt, Strassle, Lenz, Spencer, and Derler}}}
\bibcite{Gescheider2002}{{26}{2002}{{Gescheider et~al.}}{{Gescheider, Bolanowski, Pope, and Verrillo}}}
\bibcite{Gescheider2004}{{27}{2004}{{Gescheider et~al.}}{{Gescheider, Bolanowski, and Verrillo}}}
\bibcite{Gibson2005}{{28}{2005}{{Gibson and Craig}}{{}}}
\bibcite{Han1999}{{29}{1999}{{Han et~al.}}{{Han, Song, and Kwahk}}}
\bibcite{Hayward2014}{{30}{2014}{{Hayward et~al.}}{{Hayward, Terekhov, Wong, Geborek, Bengtsson, and J{\"{o}}rntell}}}
\bibcite{Holliman2011}{{31}{2011}{{Holliman et~al.}}{{Holliman, Dodgson, Favalora, and Pockett}}}
\bibcite{Hoshi2010}{{32}{2010}{{Hoshi et~al.}}{{Hoshi, Takahashi, Iwamoto, and Shinoda}}}
\bibcite{Inoue2016}{{33}{2016}{{Inoue et~al.}}{{Inoue, Makino, and Shinoda}}}
\bibcite{Iodice2018}{{34}{2018}{{Iodice et~al.}}{{Iodice, Frier, Wilcox, Long, and Georgiou}}}
\bibcite{Ion2015}{{35}{2015}{{Ion et~al.}}{{Ion, Wang, and Baudisch}}}
\bibcite{ISO1997}{{36}{1997}{{ISO}}{{}}}
\bibcite{Ito2016}{{37}{2016}{{Ito et~al.}}{{Ito, Wakuda, Inoue, Makino, and Shinoda}}}
\bibcite{Johansson1978}{{38}{1978}{{Johansson}}{{}}}
\bibcite{Johansson2009}{{39}{2009}{{Johansson and Flanagan}}{{}}}
\bibcite{Johansson1979a}{{40}{1979}{{Johansson and Vallbo}}{{}}}
\bibcite{Johansson1983}{{41}{1983}{{Johansson and Vallbo}}{{}}}
\bibcite{Jones2013}{{42}{2013}{{Jones and Tan}}{{}}}
\bibcite{Jousmaki1998}{{43}{1998}{{Jousm{\"{a}}ki and Hari}}{{}}}
\bibcite{Jun2015laser}{{44}{2015}{{Jun et~al.}}{{Jun, Park, Kim, {Min Bae}, Park, Kim, Choi, Jung, {Hwa Park}, Yeom, Jung, Kim, and Chung}}}
\bibcite{Kappus2018}{{45}{2018}{{Kappus and Long}}{{}}}
\bibcite{Kearney2015}{{46}{2015}{{Kearney et~al.}}{{Kearney, Khan, Dai, and Royston}}}
\bibcite{Kildal2010}{{47}{2010}{{Kildal}}{{}}}
\bibcite{Kildal2012}{{48}{2012}{{Kildal}}{{}}}
\bibcite{Kim2013b}{{49}{2013}{{Kim and Lee}}{{}}}
\bibcite{klatzky2002a}{{50}{2002}{{Klatzky and Lederman}}{{}}}
\bibcite{Komandur2009}{{51}{2009}{{Komandur et~al.}}{{Komandur, Johnson, Storch, and Yost}}}
\bibcite{Konrad2007}{{52}{2007}{{Konrad and Halle}}{{}}}
\bibcite{korres2017}{{53}{2017}{{Korres et~al.}}{{Korres, Aujeszky, and Eid}}}
\bibcite{Krylov1995}{{54}{1995}{{Krylov}}{{}}}
\bibcite{Krylov2000}{{55}{2000}{{Krylov et~al.}}{{Krylov, Dawson, Heelis, and Collop}}}
\bibcite{Lederman1981}{{56}{1981}{{Lederman}}{{}}}
\bibcite{Lederman1987}{{57}{1987}{{Lederman and Klatzky}}{{}}}
\bibcite{Lederman2009}{{58}{2009}{{Lederman and Klatzky}}{{}}}
\bibcite{Lee2009}{{59}{2009}{{Lee and Zhai}}{{}}}
\bibcite{Long2014}{{60}{2014{a}}{{Long et~al.}}{{Long, Seah, Carter, and Subramanian}}}
\bibcite{Long2014b}{{61}{2014{b}}{{Long et~al.}}{{Long, Seah, Carter, and Subramanian}}}
\bibcite{Loomis1981}{{62}{1981}{{Loomis}}{{}}}
\bibcite{Ma2015}{{63}{2015}{{Ma et~al.}}{{Ma, Edge, Findlater, and Tan}}}
\bibcite{Maclean2003}{{64}{2003}{{MacLean and Enriquez}}{{}}}
\bibcite{Macmillan2005}{{65}{2005}{{Macmillan and Creelman}}{{}}}
\bibcite{Manfredi2012}{{66}{2012}{{Manfredi et~al.}}{{Manfredi, Baker, Elias, Dammann, Zielinski, Polashock, and Bensma{\"{I}}a}}}
\bibcite{Manfredi2014b}{{67}{2014}{{Manfredi et~al.}}{{Manfredi, Saal, Brown, Zielinski, Dammann, Polashock, and Bensma{\"{I}}a}}}
\bibcite{Mcglone2012}{{68}{2012}{{Mcglone et~al.}}{{Mcglone, Olausson, Boyle, Jones-Gotman, Dancer, Guest, and Essick}}}
\bibcite{McGlone2014a}{{69}{2014}{{McGlone et~al.}}{{McGlone, Wessberg, and Olausson}}}
\bibcite{Mihalas2009}{{70}{2009}{{Mihalaş and Niebur}}{{}}}
\bibcite{Monnai2014}{{71}{2014}{{Monnai et~al.}}{{Monnai, Hasegawa, Fujiwara, Yoshino, Inoue, and Shinoda}}}
\bibcite{Obrist2013}{{72}{2013}{{Obrist et~al.}}{{Obrist, Seah, and Subramanian}}}
\bibcite{Obrist2015}{{73}{2015}{{Obrist et~al.}}{{Obrist, Subramanian, Gatti, Long, and Carter}}}
\bibcite{Ochiai2015}{{74}{2015}{{Ochiai et~al.}}{{Ochiai, Kumagai, Hoshi, Rekimoto, Hasegawa, and Hayasaki}}}
\bibcite{Okamoto2013}{{75}{2013}{{Okamoto et~al.}}{{Okamoto, Nagano, and Yamada}}}
\bibcite{Pacchierotti2017}{{76}{2017}{{Pacchierotti et~al.}}{{Pacchierotti, Sinclair, Solazzi, Frisoli, Hayward, and Prattichizzo}}}
\bibcite{Plaisier2009}{{77}{2009}{{Plaisier et~al.}}{{Plaisier, Tiest, and Kappers}}}
\bibcite{Price2018}{{78}{}{{Price}}{{}}}
\bibcite{Romano2010}{{79}{2010}{{Romano et~al.}}{{Romano, Yoshioka, and Kuchenbecker}}}
\bibcite{Royston2011}{{80}{2011}{{Royston et~al.}}{{Royston, Dai, Chaunsali, Liu, Peng, and Magin}}}
\bibcite{Rutten2019}{{81}{2019}{{Rutten and Frier}}{{}}}
\bibcite{Saal2017}{{82}{2017}{{Saal et~al.}}{{Saal, Delhaye, Rayhaun, and Bensma{\"{I}}a}}}
\bibcite{Schneider2017}{{83}{2017}{{Schneider et~al.}}{{Schneider, MacLean, Swindells, and Booth}}}
\bibcite{Schneider2015}{{84}{2015}{{Schneider et~al.}}{{Schneider, Israr, and Maclean}}}
\bibcite{settnes2012}{{85}{2012}{{Settnes and Bruus}}{{}}}
\bibcite{Shao2016a}{{86}{2016}{{Shao et~al.}}{{Shao, Hayward, and Visell}}}
\bibcite{Skedung2013}{{87}{2013}{{Skedung et~al.}}{{Skedung, Arvidsson, Chung, Stafford, Berglund, and Rutland}}}
\bibcite{Sodhi2013}{{88}{2013}{{Sodhi et~al.}}{{Sodhi, Poupyrev, Glisson, and Israr}}}
\bibcite{Spelmezan2016SparkleArcs}{{89}{2016}{{Spelmezan}}{{}}}
\bibcite{Sripati2006}{{90}{2006}{{Sripati}}{{}}}
\bibcite{Strohmeier2017}{{91}{2017}{{Strohmeier and Hornb{\ae }k}}{{}}}
\bibcite{Takahashi2018}{{92}{2018}{{Takahashi et~al.}}{{Takahashi, Hasegawa, and Shinoda}}}
\bibcite{Tsalamlal2014}{{93}{2014}{{Tsalamlal et~al.}}{{Tsalamlal, Issartel, Ouarti, and Ammi}}}
\bibcite{Vallbo1984}{{94}{1984}{{Vallbo and Johansson}}{{}}}
\bibcite{Vallbo2004}{{95}{2004}{{Vallbo et~al.}}{{Vallbo, Hagbarth, and Wallin}}}
\bibcite{Vardar2017a}{{96}{2017}{{Vardar et~al.}}{{Vardar, G{\"{u}}{\c {c}}l{\"{u}}, and Basdogan}}}
\bibcite{Verrillo1963}{{97}{1963}{{Verrillo}}{{}}}
\bibcite{Verrillo1971}{{98}{1971}{{Verrillo}}{{}}}
\bibcite{Wagner2008}{{99}{2008}{{Wagner et~al.}}{{Wagner, Gerling, and Scanlon}}}
\bibcite{Wang2006}{{100}{2006}{{Wang and Hayward}}{{}}}
\bibcite{Wang2007}{{101}{2007}{{Wang and Hayward}}{{}}}
\bibcite{Weber2013}{{102}{2013}{{Weber et~al.}}{{Weber, Saal, Lieber, Cheng, Manfredi, Dammann, and Bensma{\"{I}}a}}}
\bibcite{Wiertlewski2012}{{103}{2012}{{Wiertlewski and Hayward}}{{}}}
\bibcite{Wilson2014ApparentMotion}{{104}{2014}{{Wilson et~al.}}{{Wilson, Carter, Subramanian, and Brewster}}}
\bibcite{Wu2004}{{105}{2004}{{Wu et~al.}}{{Wu, Dong, Rakheja, Schopper, and Smutz}}}
\bibcite{Liang2010}{{106}{2010}{{{Xing Liang} and Boppart}}{{}}}
\bibcite{Yildiz2015}{{107}{2015}{{Yildiz et~al.}}{{Yildiz, Toker, {\"{O}}zkan, and G{\"{u}}{\c {c}}l{\"{u}}}}}
\bibcite{zhang1999}{{108}{1999}{{Zhang and Mak}}{{}}}
