\relax 
\@writefile{toc}{\contentsline {title}{Velocity Predomine Frequency in Haptic Spatial Pattern}{1}}
\@writefile{toc}{\authcount {1}}
\@writefile{toc}{\contentsline {author}{William Frier\unskip {}, Damien Ablart\unskip {}, Jamie Chilles\unskip {}, Marcello Giordano\unskip {}, Mariana Obrist\unskip {}, Sriram Subramanian\unskip {}}{1}}
\@writefile{toc}{\contentsline {section}{\numberline {1}Introduction}{1}}
\@writefile{toc}{\contentsline {section}{\numberline {2}Vibrometrie}{1}}
\@writefile{toc}{\contentsline {subsection}{\numberline {2.1}Set-up}{1}}
\@writefile{toc}{\contentsline {subsection}{\numberline {2.2}Preliminary measurements}{2}}
\@writefile{toc}{\contentsline {subsection}{\numberline {2.3}Measurements}{3}}
\@writefile{toc}{\contentsline {subsubsection}{Displacement as a measure of Velocity}{3}}
\@writefile{toc}{\contentsline {subsection}{\numberline {2.4}Results}{4}}
\@writefile{toc}{\contentsline {section}{\numberline {3}User Study}{4}}
\@writefile{toc}{\contentsline {subsection}{\numberline {3.1}Set-up}{4}}
\@writefile{toc}{\contentsline {subsection}{\numberline {3.2}Method}{4}}
\@writefile{toc}{\contentsline {subsubsection}{First study:}{5}}
\@writefile{toc}{\contentsline {subsubsection}{Second study:}{5}}
\@writefile{toc}{\contentsline {subsection}{\numberline {3.3}Results}{5}}
\@writefile{toc}{\contentsline {section}{\numberline {4}Discussion}{5}}
\@writefile{toc}{\contentsline {section}{\numberline {5}Conclusion}{5}}
