\relax 
\providecommand\hyper@newdestlabel[2]{}
\providecommand\HyperFirstAtBeginDocument{\AtBeginDocument}
\HyperFirstAtBeginDocument{\ifx\hyper@anchor\@undefined
\global\let\oldcontentsline\contentsline
\gdef\contentsline#1#2#3#4{\oldcontentsline{#1}{#2}{#3}}
\global\let\oldnewlabel\newlabel
\gdef\newlabel#1#2{\newlabelxx{#1}#2}
\gdef\newlabelxx#1#2#3#4#5#6{\oldnewlabel{#1}{{#2}{#3}}}
\AtEndDocument{\ifx\hyper@anchor\@undefined
\let\contentsline\oldcontentsline
\let\newlabel\oldnewlabel
\fi}
\fi}
\global\let\hyper@last\relax 
\gdef\HyperFirstAtBeginDocument#1{#1}
\providecommand\HyField@AuxAddToFields[1]{}
\providecommand\HyField@AuxAddToCoFields[2]{}
\@writefile{toc}{\contentsline {section}{\numberline {1}Tracking}{1}{section.1}}
\@writefile{toc}{\contentsline {subsection}{\numberline {1.1}Static}{1}{subsection.1.1}}
\@writefile{toc}{\contentsline {subsection}{\numberline {1.2}Dynamic}{1}{subsection.1.2}}
\@writefile{lof}{\contentsline {figure}{\numberline {1}{\ignorespaces example of a candidate mesh for measurement of the skewed interactive space above the array (in black) with 4x4x4 nodes}}{2}{figure.1}}
\@writefile{toc}{\contentsline {section}{\numberline {2}Mid-air Tactile Button}{2}{section.2}}
\@writefile{toc}{\contentsline {subsection}{\numberline {2.1}Static component}{2}{subsection.2.1}}
\@writefile{toc}{\contentsline {subsection}{\numberline {2.2}Dynamic component}{2}{subsection.2.2}}
