\relax 
\providecommand\hyper@newdestlabel[2]{}
\providecommand\HyperFirstAtBeginDocument{\AtBeginDocument}
\HyperFirstAtBeginDocument{\ifx\hyper@anchor\@undefined
\global\let\oldcontentsline\contentsline
\gdef\contentsline#1#2#3#4{\oldcontentsline{#1}{#2}{#3}}
\global\let\oldnewlabel\newlabel
\gdef\newlabel#1#2{\newlabelxx{#1}#2}
\gdef\newlabelxx#1#2#3#4#5#6{\oldnewlabel{#1}{{#2}{#3}}}
\AtEndDocument{\ifx\hyper@anchor\@undefined
\let\contentsline\oldcontentsline
\let\newlabel\oldnewlabel
\fi}
\fi}
\global\let\hyper@last\relax 
\gdef\HyperFirstAtBeginDocument#1{#1}
\providecommand\HyField@AuxAddToFields[1]{}
\providecommand\HyField@AuxAddToCoFields[2]{}
\@writefile{toc}{\contentsline {section}{\numberline {0}Backrground: From point to surface}{1}{section.0}}
\@writefile{toc}{\contentsline {subsection}{\numberline {0.1}Space filling curve}{1}{subsection.0.1}}
\@writefile{toc}{\contentsline {subsection}{\numberline {0.2}Closed-curves: Epitrochoid, Hypotrochoid, Lissajous \& Rose-curve}{1}{subsection.0.2}}
\@writefile{toc}{\contentsline {subsection}{\numberline {0.3}Curve length, Number of points and Gaps}{1}{subsection.0.3}}
\@writefile{toc}{\contentsline {subsection}{\numberline {0.4}displacement normalisation}{2}{subsection.0.4}}
\@writefile{toc}{\contentsline {section}{\numberline {1}Pre-requirement}{2}{section.1}}
\@writefile{toc}{\contentsline {subsection}{\numberline {1.1}Continuous and smooth surface}{2}{subsection.1.1}}
\@writefile{toc}{\contentsline {subsubsection}{\numberline {1.1.1}User Study}{2}{subsubsection.1.1.1}}
\@writefile{toc}{\contentsline {subsection}{\numberline {1.2}Size invariant strength}{3}{subsection.1.2}}
\@writefile{toc}{\contentsline {subsubsection}{\numberline {1.2.1}Hypothesis: Velocity vs Frequency}{3}{subsubsection.1.2.1}}
\@writefile{toc}{\contentsline {subsubsection}{\numberline {1.2.2}User Study}{3}{subsubsection.1.2.2}}
\@writefile{toc}{\contentsline {subsubsection}{\numberline {1.2.3}LDV Measurement}{3}{subsubsection.1.2.3}}
\@writefile{toc}{\contentsline {subsection}{\numberline {1.3}Active Touch}{3}{subsection.1.3}}
\@writefile{toc}{\contentsline {subsubsection}{\numberline {1.3.1}Litterature review}{4}{subsubsection.1.3.1}}
\@writefile{toc}{\contentsline {subsubsection}{\numberline {1.3.2}Emperical}{4}{subsubsection.1.3.2}}
\@writefile{toc}{\contentsline {subsubsection}{\numberline {1.3.3}LDV measurement}{4}{subsubsection.1.3.3}}
\@writefile{toc}{\contentsline {section}{\numberline {2}Texture Roughness Generation}{4}{section.2}}
\@writefile{toc}{\contentsline {subsection}{\numberline {2.1}Macro-Texture}{4}{subsection.2.1}}
\@writefile{toc}{\contentsline {subsubsection}{\numberline {2.1.1}Size perception}{4}{subsubsection.2.1.1}}
\@writefile{toc}{\contentsline {subsubsection}{\numberline {2.1.2}Contour Approach}{4}{subsubsection.2.1.2}}
\@writefile{toc}{\contentsline {subsubsection}{\numberline {2.1.3}bump or height map}{5}{subsubsection.2.1.3}}
\@writefile{toc}{\contentsline {subsubsection}{\numberline {2.1.4}Varying velocity}{5}{subsubsection.2.1.4}}
\@writefile{toc}{\contentsline {subsection}{\numberline {2.2}Micro-Texture}{5}{subsection.2.2}}
\@writefile{toc}{\contentsline {subsubsection}{\numberline {2.2.1}Perlin noise}{5}{subsubsection.2.2.1}}
\@writefile{toc}{\contentsline {subsubsection}{\numberline {2.2.2}Coloured noised}{5}{subsubsection.2.2.2}}
\@writefile{toc}{\contentsline {subsubsection}{\numberline {2.2.3}Fractional Brownian Motion Generator}{5}{subsubsection.2.2.3}}
\@writefile{toc}{\contentsline {section}{\numberline {3}Hardness-Stiffness Generation}{5}{section.3}}
\@writefile{toc}{\contentsline {subsection}{\numberline {3.1}Force-Displacement Curve}{5}{subsection.3.1}}
\@writefile{toc}{\contentsline {subsection}{\numberline {3.2}Contact Area-Displacement Curve}{6}{subsection.3.2}}
\@writefile{toc}{\contentsline {subsection}{\numberline {3.3}Application to Push Buttons}{6}{subsection.3.3}}
\@writefile{toc}{\contentsline {section}{\numberline {4}Volume Generation}{6}{section.4}}
